{
  "directories": [
    {
      "path": "/home/skunk/IdeaProjects/FileCacheUpdater/demo",
      "extension": "ini"
    }
  ],
  "files": [
    {
      "path": "/home/skunk/IdeaProjects/FileCacheUpdater/demo/routes.json"
    }
  ]
}